<svg width="36" height="36" viewBox="0 0 36 36" fill="none"
  xmlns="http://www.w3.org/2000/svg">
  <path d="M32.9655 20.6745L29.9655 7.1745C29.8909 6.84141 29.7051 6.54364 29.4388 6.33017C29.1724 6.11671 28.8413 6.00026 28.5 6H24V9H27.297L28.7385 15.489C27.9477 15.1691 27.1031 15.0031 26.25 15C23.3205 15 20.8455 16.887 19.914 19.5H16.0845C15.153 16.887 12.678 15 9.7485 15C8.868 15 8.031 15.1815 7.26 15.489L8.703 9H12V6H7.5C7.15878 6.00006 6.82777 6.11646 6.56161 6.32998C6.29545 6.54351 6.11005 6.84141 6.036 7.1745L3.036 20.6745L3.1065 20.691C3.0435 21.0407 3.00789 21.3948 3 21.75C3 25.4715 6.0285 28.5 9.75 28.5C13.215 28.5 16.0455 25.866 16.4235 22.5H19.5765C19.9545 25.866 22.785 28.5 26.25 28.5C29.9715 28.5 33 25.4715 33 21.75C33 21.387 32.949 21.0375 32.8935 20.691L32.9655 20.6745ZM9.75 25.5C7.683 25.5 6 23.817 6 21.75C6 19.683 7.683 18 9.75 18C11.817 18 13.5 19.683 13.5 21.75C13.5 23.817 11.817 25.5 9.75 25.5ZM26.25 25.5C24.1815 25.5 22.5 23.817 22.5 21.75C22.5 19.683 24.1815 18 26.25 18C28.3185 18 30 19.683 30 21.75C30 23.817 28.3185 25.5 26.25 25.5Z" fill="#10161E"/>
</svg>
