<svg width="172" height="210" viewBox="0 0 172 210" fill="none" xmlns="http://www.w3.org/2000/svg">
<path d="M2.3999 34.6599V32.1399H14.3999V34.6599H2.3999Z" fill="#6C6C6C"/>
<path d="M2.3999 50.6599V48.1399H14.3999V50.6599H2.3999Z" fill="#6C6C6C"/>
<path d="M2.3999 65.6599V63.1399H14.3999V65.6599H2.3999Z" fill="#6C6C6C"/>
<path d="M2.3999 81.6599V79.1399H14.3999V81.6599H2.3999Z" fill="#6C6C6C"/>
<path d="M2.3999 96.6599V94.1399H14.3999V96.6599H2.3999Z" fill="#6C6C6C"/>
<path d="M2.3999 112.66V110.14H14.3999V112.66H2.3999Z" fill="#6C6C6C"/>
<path d="M2.3999 131.66V129.14H14.3999V131.66H2.3999Z" fill="#6C6C6C"/>
<path d="M2.3999 147.66V145.14H14.3999V147.66H2.3999Z" fill="#6C6C6C"/>
<path d="M2.3999 162.66V160.14H14.3999V162.66H2.3999Z" fill="#6C6C6C"/>
<path d="M2.3999 178.66V176.14H14.3999V178.66H2.3999Z" fill="#6C6C6C"/>
<path d="M2.3999 193.66V191.14H14.3999V193.66H2.3999Z" fill="#6C6C6C"/>
<path d="M2.3999 209.66V207.14H14.3999V209.66H2.3999Z" fill="#6C6C6C"/>
<path d="M0 0H138V8H0V0Z" fill="#353535"/>
<path d="M159.4 8.65989V6.13989H171.4V8.65989H159.4Z" fill="black"/>
</svg>
